V3 Entity API URL dictionary — dictionary_v3_entity_urls • gdeltr2
…
    V3 Entity API URL dictionary

    Source: R/v3_entities.R
    dictionary_v3_entity_urls.Rd

    Dictionary of URLs from the V3 API
updated on 15 minute intervals

dictionary_v3_entity_urls()

    Examples

dictionary_v3_entity_urls()
#> # A tibble: 101,388 x 5
#>    yearData monthData dateData   datetimeData        urlAPI                     
#>       <dbl>     <dbl> <date>     <dttm>              <chr>                      
#>  1     2016         7 2016-07-17 2016-07-16 20:15:00 http://data.gdeltproject.o…
#>  2     2016         7 2016-07-17 2016-07-16 20:30:00 http://data.gdeltproject.o…
#>  3     2016         7 2016-07-17 2016-07-16 20:45:00 http://data.gdeltproject.o…
#>  4     2016         7 2016-07-17 2016-07-16 21:00:00 http://data.gdeltproject.o…
#>  5     2016         7 2016-07-17 2016-07-16 21:15:00 http://data.gdeltproject.o…
#>  6     2016         7 2016-07-17 2016-07-16 21:30:00 http://data.gdeltproject.o…
#>  7     2016         7 2016-07-17 2016-07-16 21:45:00 http://data.gdeltproject.o…
#>  8     2016         7 2016-07-17 2016-07-16 22:00:00 http://data.gdeltproject.o…
#>  9     2016         7 2016-07-17 2016-07-16 22:15:00 http://data.gdeltproject.o…
#> 10     2016         7 2016-07-17 2016-07-16 22:30:00 http://data.gdeltproject.o…
#> # … with 101,378 more rows
…
